{
  "project_info": {
    "project_number": "369274363184",
    "firebase_url": "https://mygym-4f222.firebaseio.com",
    "project_id": "mygym-4f222",
    "storage_bucket": "mygym-4f222.appspot.com"
  },
  "client": [
    {
      "client_info": {
        "mobilesdk_app_id": "1:369274363184:android:fe278d115a10b9880b3cf5",
        "android_client_info": {
          "package_name": "com.arima.mygymadmin"
        }
      },
      "oauth_client": [
        {
          "client_id": "369274363184-qtet3df3hdt5qnlp6jecablc3m3211nf.apps.googleusercontent.com",
          "client_type": 3
        }
      ],
      "api_key": [
        {
          "current_key": "AIzaSyASsdpzOhJnPz7Vq4UsTe_gvMRdCS2to-s"
        }
      ],
      "services": {
        "appinvite_service": {
          "other_platform_oauth_client": [
            {
              "client_id": "369274363184-qtet3df3hdt5qnlp6jecablc3m3211nf.apps.googleusercontent.com",
              "client_type": 3
            }
          ]
        }
      }
    }
  ],
  "configuration_version": "1"
}